JacobianKPSL

-3.5509e+02  -1.9299e+00   3.5123e+02        0e+00        0e+00        0e+00        0e+00        0e+00        0e+00
   2.8868e+02  -5.7735e+02   2.8868e+02        0e+00        0e+00        0e+00        0e+00        0e+00        0e+00
   3.3333e-01   3.3333e-01   3.3333e-01        0e+00        0e+00        0e+00        0e+00        0e+00        0e+00
        0e+00        0e+00        0e+00   3.5123e+02  -1.9299e+00  -3.5509e+02        0e+00        0e+00        0e+00
        0e+00        0e+00        0e+00  -2.8868e+02   5.7735e+02  -2.8868e+02        0e+00        0e+00        0e+00
        0e+00        0e+00        0e+00   3.3333e-01   3.3333e-01   3.3333e-01        0e+00        0e+00        0e+00
        0e+00        0e+00        0e+00        0e+00        0e+00        0e+00  -3.5509e+02  -1.9299e+00   3.5123e+02
        0e+00        0e+00        0e+00        0e+00        0e+00        0e+00   2.8868e+02  -5.7735e+02   2.8868e+02
        0e+00        0e+00        0e+00        0e+00        0e+00        0e+00   3.3333e-01   3.3333e-01   3.3333e-01



Matrix([
[       -355.092481461582,         -1.92985044272599,          351.23278057613,                         0,                        0,                         0,                        0,                         0,                        0],
[166.666666666667*sqrt(3), -333.333333333333*sqrt(3), 166.666666666667*sqrt(3),                         0,                        0,                         0,                        0,                         0,                        0],
[       0.333333333333333,         0.333333333333333,        0.333333333333333,                         0,                        0,                         0,                        0,                         0,                        0],
[                       0,                         0,                        0,           351.23278057613,        -1.92985044272599,         -355.092481461582,                        0,                         0,                        0],
[                       0,                         0,                        0, -166.666666666667*sqrt(3), 333.333333333333*sqrt(3), -166.666666666667*sqrt(3),                        0,                         0,                        0],
[                       0,                         0,                        0,         0.333333333333333,        0.333333333333333,         0.333333333333333,                        0,                         0,                        0],
[                       0,                         0,                        0,                         0,                        0,                         0,        -355.092481461582,         -1.92985044272599,          351.23278057613],
[                       0,                         0,                        0,                         0,                        0,                         0, 166.666666666667*sqrt(3), -333.333333333333*sqrt(3), 166.666666666667*sqrt(3)],
[                       0,                         0,                        0,                         0,                        0,                         0,        0.333333333333333,         0.333333333333333,        0.333333333333333]])

Jv
 -1.8456e-02  -3.6303e-02  -1.2838e-01   1.1213e-02  -1.3623e-02   4.3511e-02  -7.4283e-03  -1.6834e-05  -8.5826e-02
   3.1966e-02  -1.0463e-02   2.2236e-01   1.9144e-02   2.5925e-03   2.2250e-01  -3.9703e-05  -5.1948e-03   1.4838e-01
  -4.2601e-03        0e+00   9.7410e-01  -2.3404e-03  -7.8237e-04   9.7965e-01  -4.2424e-04   7.8091e-04   9.8520e-01

  Matrix([
[ -0.0184556518522198, -0.0363025846822498, -0.128379536799526,   0.0112134550313709,   -0.0136229626095166, 0.0435111081319024,  -0.00742825441486165, -1.68335766711873e-5, -0.0858260131998939],
[  0.0319661266948473, -0.0104626115945625,  0.222359880388938,   0.0191439118624616,   0.00259252650949505,  0.222498159946292,  -3.97033263007732e-5, -0.00519482613251056,   0.148378456358585],
[-0.00426008862779464,                   0,  0.974098864507709, -0.00234038266691672, -0.000782366390159767,  0.979654262497583, -0.000424241532578751, 0.000780913564088662,   0.985199334727168]])

Ju

  1.0000         0         0   -0.0363    0.3635         0   -3.9690   20.9521  -17.0047    7.8856   -7.8724   -0.0347    2.6042   -0.0046   -2.6425
         0    1.0000         0   -0.0105         0   -0.3635  -14.2971    6.0530    8.2814    6.0497    1.5340   -7.4721   -1.4361    3.0488   -1.4641
         0         0    1.0000         0    0.0105    0.0363    1.8374    0.3329   -1.1716   -0.2696   -0.1206    1.3835    0.7045   -0.1216    0.4048

         
Matrix([
[1, 0, 0, -0.0363025846822498,  0.363513932459835,                  0, -6.05043078037496*sqrt(3) + 6.51067003426258, -0.00717653103537238 + 12.1008615607499*sqrt(3), -6.05043078037496*sqrt(3) - 6.52502309633333,   2.27049376825277*sqrt(3) + 3.95303669324443, -4.54098753650553*sqrt(3) - 0.00713658844614498,  -3.96730987013672 + 2.27049376825277*sqrt(3), -0.00280559611186455*sqrt(3) + 2.60910862203454, -0.0142732509954293 + 0.00561119222372911*sqrt(3),  -2.6376551240254 - 0.00280559611186455*sqrt(3)],
[0, 1, 0, -0.0104626115945625,                  0, -0.363513932459835,  -11.276811290659 - 1.74376859909374*sqrt(3),   0.0124301163753598 + 3.48753719818749*sqrt(3), -1.74376859909374*sqrt(3) + 11.3016715234097, -0.432087751582508*sqrt(3) + 6.79813544787218,  0.0372211665321518 + 0.864175503165017*sqrt(3), -6.72369311480788 - 0.432087751582508*sqrt(3), -0.865804355418427*sqrt(3) + 0.0635578381112821,     0.0495361069347009 + 1.73160871083685*sqrt(3), -0.865804355418427*sqrt(3) + 0.0355143757581197],
[0, 0, 1,                   0, 0.0104626115945625, 0.0363025846822498,                             1.83742506359244,                               0.332920955426971,                            -1.17158315273849, -0.49546769088081 + 0.130394398359961*sqrt(3),  -0.260788796719922*sqrt(3) + 0.331068009358425,  0.130394398359961*sqrt(3) + 1.15760370959766,   0.130152260681444*sqrt(3) + 0.479044756784843,    -0.260304521362887*sqrt(3) + 0.329218500951859,   0.179392245118876 + 0.130152260681444*sqrt(3)]])

pinv(Ju)

 1.6537e-03  -2.0847e-03  -1.5455e-02
  -2.0847e-03   9.3824e-03   5.7537e-02
  -1.5455e-02   5.7537e-02   4.7597e-01
  -3.8221e-05  -2.2485e-05  -4.0945e-05
   4.3944e-04  -1.5583e-04  -6.3811e-04
   1.9677e-04  -1.3219e-03  -3.6366e-03
  -5.1551e-03  -2.0147e-02   1.1328e-01
   1.6884e-02   3.2268e-02   1.8293e-01
  -2.7278e-02   4.5739e-02   1.8165e-01
   4.5953e-03   2.4809e-02   9.7885e-02
  -1.4352e-02   2.3863e-02   1.5251e-01
  -5.8612e-03   9.5664e-03   2.2910e-01
  -3.5871e-03   2.1631e-02   2.1243e-01
  -4.4834e-03   2.1615e-02   1.1759e-01
  -7.5741e-03   1.5064e-02   1.4928e-01

  
  [[  1.65367283e-03  -2.08469941e-03  -1.54547202e-02]
 [ -2.08469941e-03   9.38240998e-03   5.75373471e-02]
 [ -1.54547202e-02   5.75373471e-02   4.75971050e-01]
 [ -3.82211976e-05  -2.24845345e-05  -4.09446252e-05]
 [  4.39436377e-04  -1.55826366e-04  -6.38105897e-04]
 [  1.96770991e-04  -1.32188233e-03  -3.63664796e-03]
 [ -5.15511968e-03  -2.01466191e-02   1.13283053e-01]
 [  1.68840378e-02   3.22684260e-02   1.82926234e-01]
 [ -2.72778609e-02   4.57391149e-02   1.81651245e-01]
 [  4.59526663e-03   2.48088107e-02   9.78850275e-02]
 [ -1.43519434e-02   2.38634635e-02   1.52511286e-01]
 [ -5.86120323e-03   9.56635635e-03   2.29095755e-01]
 [ -3.58713727e-03   2.16308537e-02   2.12434761e-01]
 [ -4.48335578e-03   2.16153412e-02   1.17590401e-01]
 [ -7.57405998e-03   1.50644532e-02   1.49282560e-01]]
  
  
vl

-3.9890e-03
   1.7302e-02
   1.6499e-01
  -3.6209e-05
   2.7621e-04
  -2.9967e-04
   7.1633e-02
   7.6079e-02
   1.7809e-02
   2.8729e-02
   3.8040e-02
   9.9120e-02
   8.0999e-02
   3.2697e-02
   5.2003e-02

 [[-0.00398898787695496],
 [0.0173015641730179],
 [0.164993457782054],
 [-3.62089757210602e-5],
 [0.000276209794730967],
 [-0.000299670657089766],
 [0.0716330256678310],
 [0.0760787290350809],
 [0.0178086467634265],
 [0.0287289696200363],
 [0.0380402359991493],
 [0.0991203177544537],
 [0.0809993897139231],
 [0.0326965037804642],
 [0.0520027668938210]]
 
 position_base
 0.00023632 -0.000126655 0.073283
 
 -3.98898787695496e-5, 0.000173015641730179, 0.00164993457782054
 
 
 length:
 
 0.00171633 0.00271633 0.00371633 0.00371633 0.00271633 0.00171633 0.00171633 0.00271633 0.00371633
 
 [0.00171633025667831, 0.00276078729035081, 0.00317808646763427, 0.00328728969620036, 0.00238040235999149, 0.00199120317754454, 0.00180999389713923, 0.00232696503780464, 0.00352002766893821]